{
    "bot" : {
        "api_token" : /* API token of your bot */,
        "polling_timeout_sec" : /* Timeout in seconds for long polling */
    },
    "moderators" : [
        // place your moderators id here
    ],
    "admins" : [
        // place your admins id here
    ]
}